module codeberg.org/miry/samples

go 1.19

require (
	bitbucket.org/miry/miry-readdle-test v0.0.0-20180827183603-a1b980a8d0c4
	fyne.io/fyne/v2 v2.0.4
	gioui.org v0.0.0-20210819082505-f47508729638
	github.com/Shopify/toxiproxy/v2 v2.4.0
	github.com/go-pg/pg/v10 v10.10.6
	github.com/gocraft/health v0.0.0-20170925182251-8675af27fef0
	github.com/golang/protobuf v1.5.2
	github.com/maxence-charriere/go-app/v9 v9.0.0-20210831055233-a26b53638c86
	github.com/prometheus/client_golang v1.12.1
	github.com/rcrowley/go-metrics v0.0.0-20190826022208-cac0b30c2563
	github.com/rs/zerolog v1.21.0
	github.com/stretchr/testify v1.7.0
	golang.org/x/net v0.0.0-20210525063256-abc453219eb5
	google.golang.org/genproto v0.0.0-20200825200019-8632dd797987 // indirect
	google.golang.org/grpc v1.31.0
)

require (
	gioui.org/cpu v0.0.0-20210817075930-8d6a761490d2 // indirect
	gioui.org/shader v0.0.0-20210816161847-c12352edbd45 // indirect
	github.com/beorn7/perks v1.0.1 // indirect
	github.com/cespare/xxhash/v2 v2.1.2 // indirect
	github.com/davecgh/go-spew v1.1.1 // indirect
	github.com/fredbi/uri v0.0.0-20181227131451-3dcfdacbaaf3 // indirect
	github.com/fsnotify/fsnotify v1.4.9 // indirect
	github.com/fyne-io/mobile v0.1.3-0.20210412090810-650a3139866a // indirect
	github.com/go-gl/gl v0.0.0-20190320180904-bf2b1f2f34d7 // indirect
	github.com/go-gl/glfw/v3.3/glfw v0.0.0-20210410170116-ea3d685f79fb // indirect
	github.com/go-pg/zerochecker v0.2.0 // indirect
	github.com/godbus/dbus/v5 v5.0.4 // indirect
	github.com/goki/freetype v0.0.0-20181231101311-fa8a33aabaff // indirect
	github.com/google/uuid v1.2.0 // indirect
	github.com/gorilla/mux v1.8.0 // indirect
	github.com/jinzhu/inflection v1.0.0 // indirect
	github.com/matttproud/golang_protobuf_extensions v1.0.1 // indirect
	github.com/pmezard/go-difflib v1.0.0 // indirect
	github.com/prometheus/client_model v0.2.0 // indirect
	github.com/prometheus/common v0.32.1 // indirect
	github.com/prometheus/procfs v0.7.3 // indirect
	github.com/sirupsen/logrus v1.8.1 // indirect
	github.com/srwiley/oksvg v0.0.0-20200311192757-870daf9aa564 // indirect
	github.com/srwiley/rasterx v0.0.0-20200120212402-85cb7272f5e9 // indirect
	github.com/tmthrgd/go-hex v0.0.0-20190904060850-447a3041c3bc // indirect
	github.com/vmihailenco/bufpool v0.1.11 // indirect
	github.com/vmihailenco/msgpack/v5 v5.3.5 // indirect
	github.com/vmihailenco/tagparser v0.1.2 // indirect
	github.com/vmihailenco/tagparser/v2 v2.0.0 // indirect
	golang.org/x/crypto v0.0.0-20210921155107-089bfa567519 // indirect
	golang.org/x/exp v0.0.0-20210722180016-6781d3edade3 // indirect
	golang.org/x/image v0.0.0-20210628002857-a66eb6448b8d // indirect
	golang.org/x/sys v0.0.0-20220114195835-da31bd327af9 // indirect
	golang.org/x/text v0.3.6 // indirect
	google.golang.org/protobuf v1.26.0 // indirect
	gopkg.in/tomb.v1 v1.0.0-20141024135613-dd632973f1e7 // indirect
	gopkg.in/yaml.v3 v3.0.0-20200313102051-9f266ea9e77c // indirect
	mellium.im/sasl v0.2.1 // indirect
)
