module codeberg.org/miry/samples/opentelemetry

go 1.14

require (
	go.opentelemetry.io/otel v0.13.0
	go.opentelemetry.io/otel/exporters/otlp v0.13.0
	go.opentelemetry.io/otel/sdk v0.13.0
	google.golang.org/grpc v1.33.1
)
